Library\Bee\artifacts\mvdfrm\Unity.2D.Tilemap.Editor.ref.dll_436C0E2610862891.mvfrm
Library\Bee\artifacts\mvdfrm\Unity.2D.Tilemap.Extras.ref.dll_371E356D6F5B6577.mvfrm
Library\Bee\artifacts\mvdfrm\UnityEditor.TestRunner.ref.dll_193EC4CE382CBFB3.mvfrm
Library\Bee\artifacts\mvdfrm\UnityEditor.UI.ref.dll_4C98D3F7040CD4F5.mvfrm
Library\Bee\artifacts\mvdfrm\UnityEngine.TestRunner.ref.dll_E55D0F7C63F01D9E.mvfrm
Library\Bee\artifacts\mvdfrm\UnityEngine.UI.ref.dll_08FEAA520A2EFD60.mvfrm
Library\Bee\artifacts\mvdfrm\UnityEditor.Graphs.dll_AD042AF0F9D4197E.mvfrm
Library\Bee\artifacts\mvdfrm\UnityEditor.CoreModule.dll_F57201747323DB4C.mvfrm
Library\Bee\artifacts\mvdfrm\UnityEditor.DeviceSimulatorModule.dll_FB0AEC462EF2E835.mvfrm
Library\Bee\artifacts\mvdfrm\UnityEditor.DiagnosticsModule.dll_74CAD71FD3728543.mvfrm
Library\Bee\artifacts\mvdfrm\UnityEditor.dll_38E55E35E1016C89.mvfrm
Library\Bee\artifacts\mvdfrm\UnityEditor.EditorToolbarModule.dll_8D4C6183DF7EA165.mvfrm
Library\Bee\artifacts\mvdfrm\UnityEditor.GraphViewModule.dll_8D675EAC7AEB1EBA.mvfrm
Library\Bee\artifacts\mvdfrm\UnityEditor.PresetsUIModule.dll_48CD978E7D4376BF.mvfrm
Library\Bee\artifacts\mvdfrm\UnityEditor.QuickSearchModule.dll_FFDA582D2C49819C.mvfrm
Library\Bee\artifacts\mvdfrm\UnityEditor.SceneTemplateModule.dll_B0EBD241DE6B4B9D.mvfrm
Library\Bee\artifacts\mvdfrm\UnityEditor.SceneViewModule.dll_CC1741B4700DEBC8.mvfrm
Library\Bee\artifacts\mvdfrm\UnityEditor.TextCoreFontEngineModule.dll_B2D3B4903E36874A.mvfrm
Library\Bee\artifacts\mvdfrm\UnityEditor.TextCoreTextEngineModule.dll_FABBEB01CDBA4068.mvfrm
Library\Bee\artifacts\mvdfrm\UnityEditor.UIBuilderModule.dll_E1F00BC8EDA397EE.mvfrm
Library\Bee\artifacts\mvdfrm\UnityEditor.UIElementsModule.dll_D1B32F84FE6C9F08.mvfrm
Library\Bee\artifacts\mvdfrm\UnityEditor.UIElementsSamplesModule.dll_03C28804D9F24AE5.mvfrm
Library\Bee\artifacts\mvdfrm\UnityEditor.UnityConnectModule.dll_A51260987FEA3002.mvfrm
Library\Bee\artifacts\mvdfrm\UnityEngine.AccessibilityModule.dll_E3913DD8DEE1733A.mvfrm
Library\Bee\artifacts\mvdfrm\UnityEngine.AIModule.dll_9740756125313820.mvfrm
Library\Bee\artifacts\mvdfrm\UnityEngine.AndroidJNIModule.dll_4FFC1858478C0DDE.mvfrm
Library\Bee\artifacts\mvdfrm\UnityEngine.AnimationModule.dll_5BECDAD55547F360.mvfrm
Library\Bee\artifacts\mvdfrm\UnityEngine.ARModule.dll_50B33A64824E96E9.mvfrm
Library\Bee\artifacts\mvdfrm\UnityEngine.AssetBundleModule.dll_43C38B1E8EB0368E.mvfrm
Library\Bee\artifacts\mvdfrm\UnityEngine.AudioModule.dll_F8D3F93D37057C52.mvfrm
Library\Bee\artifacts\mvdfrm\UnityEngine.ClothModule.dll_5FBC563811225B36.mvfrm
Library\Bee\artifacts\mvdfrm\UnityEngine.ClusterInputModule.dll_24AED5AE317202C8.mvfrm
Library\Bee\artifacts\mvdfrm\UnityEngine.ClusterRendererModule.dll_00B7AEB79EADF5B9.mvfrm
Library\Bee\artifacts\mvdfrm\UnityEngine.ContentLoadModule.dll_DCD9E45F5D32DE7B.mvfrm
Library\Bee\artifacts\mvdfrm\UnityEngine.CoreModule.dll_1892D4C71B294677.mvfrm
Library\Bee\artifacts\mvdfrm\UnityEngine.CrashReportingModule.dll_BAD9CE1CF6C70A6F.mvfrm
Library\Bee\artifacts\mvdfrm\UnityEngine.DirectorModule.dll_938E5117E7D7FA54.mvfrm
Library\Bee\artifacts\mvdfrm\UnityEngine.dll_6B89A50E3F74F96E.mvfrm
Library\Bee\artifacts\mvdfrm\UnityEngine.DSPGraphModule.dll_98DFB2815A38CB75.mvfrm
Library\Bee\artifacts\mvdfrm\UnityEngine.GameCenterModule.dll_7A4962730DCCFECF.mvfrm
Library\Bee\artifacts\mvdfrm\UnityEngine.GIModule.dll_2F7CBE6EC0E0203A.mvfrm
Library\Bee\artifacts\mvdfrm\UnityEngine.GridModule.dll_F603F0B5337DDC6E.mvfrm
Library\Bee\artifacts\mvdfrm\UnityEngine.HotReloadModule.dll_DD3598DB307B0EE2.mvfrm
Library\Bee\artifacts\mvdfrm\UnityEngine.ImageConversionModule.dll_6CA9AC6820D2ADAD.mvfrm
Library\Bee\artifacts\mvdfrm\UnityEngine.IMGUIModule.dll_313398A3FD371033.mvfrm
Library\Bee\artifacts\mvdfrm\UnityEngine.InputLegacyModule.dll_D508A63D26A1EC7F.mvfrm
Library\Bee\artifacts\mvdfrm\UnityEngine.InputModule.dll_5F49C0EDAD3DA0F6.mvfrm
Library\Bee\artifacts\mvdfrm\UnityEngine.JSONSerializeModule.dll_43A8C714DE1CD3C4.mvfrm
Library\Bee\artifacts\mvdfrm\UnityEngine.LocalizationModule.dll_62FBA000C8EDF5C1.mvfrm
Library\Bee\artifacts\mvdfrm\UnityEngine.NVIDIAModule.dll_A790A530EF74FFC3.mvfrm
Library\Bee\artifacts\mvdfrm\UnityEngine.ParticleSystemModule.dll_0DEC176964D895FD.mvfrm
Library\Bee\artifacts\mvdfrm\UnityEngine.PerformanceReportingModule.dll_23E00F53C3A71236.mvfrm
Library\Bee\artifacts\mvdfrm\UnityEngine.Physics2DModule.dll_A892CAC5F644EAF5.mvfrm
Library\Bee\artifacts\mvdfrm\UnityEngine.PhysicsModule.dll_22F22396AABDC563.mvfrm
Library\Bee\artifacts\mvdfrm\UnityEngine.ProfilerModule.dll_C5D48A4E81318161.mvfrm
Library\Bee\artifacts\mvdfrm\UnityEngine.PropertiesModule.dll_A784A1B180B8630B.mvfrm
Library\Bee\artifacts\mvdfrm\UnityEngine.RuntimeInitializeOnLoadManagerInitializerModule.dll_01F8392D10ABC5BE.mvfrm
Library\Bee\artifacts\mvdfrm\UnityEngine.ScreenCaptureModule.dll_5D907499F2890026.mvfrm
Library\Bee\artifacts\mvdfrm\UnityEngine.SharedInternalsModule.dll_F0BAEB3D9800A8FD.mvfrm
Library\Bee\artifacts\mvdfrm\UnityEngine.SpriteMaskModule.dll_6375D5032F3C9449.mvfrm
Library\Bee\artifacts\mvdfrm\UnityEngine.SpriteShapeModule.dll_5D24B87944526E98.mvfrm
Library\Bee\artifacts\mvdfrm\UnityEngine.StreamingModule.dll_1081C825A4CFAA9E.mvfrm
Library\Bee\artifacts\mvdfrm\UnityEngine.SubstanceModule.dll_ED2CDC6EF022A8AC.mvfrm
Library\Bee\artifacts\mvdfrm\UnityEngine.SubsystemsModule.dll_CE233B64FD847C5C.mvfrm
Library\Bee\artifacts\mvdfrm\UnityEngine.TerrainModule.dll_3D389F05807C0E51.mvfrm
Library\Bee\artifacts\mvdfrm\UnityEngine.TerrainPhysicsModule.dll_0E66C03C7E1B908A.mvfrm
Library\Bee\artifacts\mvdfrm\UnityEngine.TextCoreFontEngineModule.dll_31332FE351344615.mvfrm
Library\Bee\artifacts\mvdfrm\UnityEngine.TextCoreTextEngineModule.dll_791B6654E0B7FF33.mvfrm
Library\Bee\artifacts\mvdfrm\UnityEngine.TextRenderingModule.dll_86CFE6A4A9C0801B.mvfrm
Library\Bee\artifacts\mvdfrm\UnityEngine.TilemapModule.dll_DC3506869838EF5A.mvfrm
Library\Bee\artifacts\mvdfrm\UnityEngine.TLSModule.dll_617A637F4DBF8577.mvfrm
Library\Bee\artifacts\mvdfrm\UnityEngine.UIElementsModule.dll_D2619CCD00B0B853.mvfrm
Library\Bee\artifacts\mvdfrm\UnityEngine.UIModule.dll_92B4138E81783DCC.mvfrm
Library\Bee\artifacts\mvdfrm\UnityEngine.UmbraModule.dll_73A8A555C42C27C5.mvfrm
Library\Bee\artifacts\mvdfrm\UnityEngine.UnityAnalyticsCommonModule.dll_BF1ECC97DD8FB094.mvfrm
Library\Bee\artifacts\mvdfrm\UnityEngine.UnityAnalyticsModule.dll_2D8B883310FFE7F9.mvfrm
Library\Bee\artifacts\mvdfrm\UnityEngine.UnityConnectModule.dll_9271E4A77A7230AD.mvfrm
Library\Bee\artifacts\mvdfrm\UnityEngine.UnityCurlModule.dll_8F097C06C55BE54D.mvfrm
Library\Bee\artifacts\mvdfrm\UnityEngine.UnityTestProtocolModule.dll_BF853DF733EDA03B.mvfrm
Library\Bee\artifacts\mvdfrm\UnityEngine.UnityWebRequestAssetBundleModule.dll_FF3B612644ABDD8A.mvfrm
Library\Bee\artifacts\mvdfrm\UnityEngine.UnityWebRequestAudioModule.dll_9BDC63324A11DCCE.mvfrm
Library\Bee\artifacts\mvdfrm\UnityEngine.UnityWebRequestModule.dll_7E48B4122BC7482C.mvfrm
Library\Bee\artifacts\mvdfrm\UnityEngine.UnityWebRequestTextureModule.dll_5A78638CD7083863.mvfrm
Library\Bee\artifacts\mvdfrm\UnityEngine.UnityWebRequestWWWModule.dll_43DDABB0D077BB9F.mvfrm
Library\Bee\artifacts\mvdfrm\UnityEngine.VehiclesModule.dll_0B514A976201C9EF.mvfrm
Library\Bee\artifacts\mvdfrm\UnityEngine.VFXModule.dll_E258FBEE242CEEE4.mvfrm
Library\Bee\artifacts\mvdfrm\UnityEngine.VideoModule.dll_1DDD7DA7F99797F7.mvfrm
Library\Bee\artifacts\mvdfrm\UnityEngine.VirtualTexturingModule.dll_26E400F7BAE99255.mvfrm
Library\Bee\artifacts\mvdfrm\UnityEngine.VRModule.dll_E5863A142332C344.mvfrm
Library\Bee\artifacts\mvdfrm\UnityEngine.WindModule.dll_8EE1AFEFAC5FC4E0.mvfrm
Library\Bee\artifacts\mvdfrm\UnityEngine.XRModule.dll_1844FD18AC6D10A2.mvfrm
Library\Bee\artifacts\mvdfrm\UnityEditor.WebGL.Extensions.dll_87B4944F918BD624.mvfrm
Library\Bee\artifacts\mvdfrm\UnityEditor.WindowsStandalone.Extensions.dll_D8172518A1B43714.mvfrm
Library\Bee\artifacts\mvdfrm\Unity.Plastic.Antlr3.Runtime.dll_06567403B026473B.mvfrm
Library\Bee\artifacts\mvdfrm\Unity.Plastic.Newtonsoft.Json.dll_2AAE32905E8C08CA.mvfrm
Library\Bee\artifacts\mvdfrm\Unity.Collections.LowLevel.ILSupport.dll_2E40CE80E145E521.mvfrm
Library\Bee\artifacts\mvdfrm\Unity.VisualScripting.IonicZip.dll_AFC4A1775743CCD8.mvfrm
Library\Bee\artifacts\mvdfrm\Unity.VisualScripting.YamlDotNet.dll_295D7F5050B34F24.mvfrm
Library\Bee\artifacts\mvdfrm\Unity.VisualScripting.TextureAssets.dll_C07BA8A41180AD1C.mvfrm
Library\Bee\artifacts\mvdfrm\Unity.VisualScripting.Antlr3.Runtime.dll_DACAA631817C5F43.mvfrm